{
  "albums": {
    "href": "https://api.spotify.com/v1/search?query=iron+maiden&type=album&market=BR&offset=0&limit=10",
    "items": [
      {
        "album_type": "album",
        "artists": [
          {
            "external_urls": {
              "spotify": "https://open.spotify.com/artist/6mdiAmATAx73kdxrNrnlao"
            },
            "href": "https://api.spotify.com/v1/artists/6mdiAmATAx73kdxrNrnlao",
            "id": "6mdiAmATAx73kdxrNrnlao",
            "name": "Iron Maiden",
            "type": "artist",
            "uri": "spotify:artist:6mdiAmATAx73kdxrNrnlao"
          }
        ],
        "available_markets": [
          "AD",
          "AE",
          "AR",
          "AT",
          "AU",
          "BE",
          "BG",
          "BH",
          "BO",
          "BR",
          "CA",
          "CH",
          "CL",
          "CO",
          "CR",
          "CY",
          "CZ",
          "DE",
          "DK",
          "DO",
          "DZ",
          "EC",
          "EE",
          "EG",
          "ES",
          "FI",
          "FR",
          "GB",
          "GR",
          "GT",
          "HK",
          "HN",
          "HU",
          "ID",
          "IE",
          "IL",
          "IS",
          "IT",
          "JO",
          "JP",
          "KW",
          "LB",
          "LI",
          "LT",
          "LU",
          "LV",
          "MA",
          "MC",
          "MT",
          "MX",
          "MY",
          "NI",
          "NL",
          "NO",
          "NZ",
          "OM",
          "PA",
          "PE",
          "PH",
          "PL",
          "PS",
          "PT",
          "PY",
          "QA",
          "RO",
          "SA",
          "SE",
          "SG",
          "SK",
          "SV",
          "TH",
          "TN",
          "TR",
          "TW",
          "UY",
          "VN",
          "ZA"
        ],
        "external_urls": {
          "spotify": "https://open.spotify.com/album/5S3gls8Kjn8KVmqlIDEBbO"
        },
        "href": "https://api.spotify.com/v1/albums/5S3gls8Kjn8KVmqlIDEBbO",
        "id": "5S3gls8Kjn8KVmqlIDEBbO",
        "images": [
          {
            "height": 640,
            "url": "https://i.scdn.co/image/1879d742ffafd39bf5de933b37ebe0823a7c72c0",
            "width": 640
          },
          {
            "height": 300,
            "url": "https://i.scdn.co/image/c86336c0d30e951f57ad4f85977bb8a203826e35",
            "width": 300
          },
          {
            "height": 64,
            "url": "https://i.scdn.co/image/f7a34cb10ee9ebbee14354b54e8bd2f2efcbc1a2",
            "width": 64
          }
        ],
        "name": "The Number Of The Beast (2015 Remaster)",
        "release_date": "1982",
        "release_date_precision": "year",
        "total_tracks": 8,
        "type": "album",
        "uri": "spotify:album:5S3gls8Kjn8KVmqlIDEBbO"
      },
      {
        "album_type": "album",
        "artists": [
          {
            "external_urls": {
              "spotify": "https://open.spotify.com/artist/6mdiAmATAx73kdxrNrnlao"
            },
            "href": "https://api.spotify.com/v1/artists/6mdiAmATAx73kdxrNrnlao",
            "id": "6mdiAmATAx73kdxrNrnlao",
            "name": "Iron Maiden",
            "type": "artist",
            "uri": "spotify:artist:6mdiAmATAx73kdxrNrnlao"
          }
        ],
        "available_markets": [
          "AD",
          "AE",
          "AR",
          "AT",
          "AU",
          "BE",
          "BG",
          "BH",
          "BO",
          "BR",
          "CA",
          "CH",
          "CL",
          "CO",
          "CR",
          "CY",
          "CZ",
          "DE",
          "DK",
          "DO",
          "DZ",
          "EC",
          "EE",
          "EG",
          "ES",
          "FI",
          "FR",
          "GB",
          "GR",
          "GT",
          "HK",
          "HN",
          "HU",
          "ID",
          "IE",
          "IL",
          "IS",
          "IT",
          "JO",
          "JP",
          "KW",
          "LB",
          "LI",
          "LT",
          "LU",
          "LV",
          "MA",
          "MC",
          "MT",
          "MX",
          "MY",
          "NI",
          "NL",
          "NO",
          "NZ",
          "OM",
          "PA",
          "PE",
          "PH",
          "PL",
          "PS",
          "PT",
          "PY",
          "QA",
          "RO",
          "SA",
          "SE",
          "SG",
          "SK",
          "SV",
          "TH",
          "TN",
          "TR",
          "TW",
          "UY",
          "VN",
          "ZA"
        ],
        "external_urls": {
          "spotify": "https://open.spotify.com/album/16Su3EUFLPqWVyrwN1q5wO"
        },
        "href": "https://api.spotify.com/v1/albums/16Su3EUFLPqWVyrwN1q5wO",
        "id": "16Su3EUFLPqWVyrwN1q5wO",
        "images": [
          {
            "height": 640,
            "url": "https://i.scdn.co/image/17e7c4d56fce74365a19e5ad9bd280633eade785",
            "width": 640
          },
          {
            "height": 300,
            "url": "https://i.scdn.co/image/7383e70bb52c3e4df9cc0c86aae366c2d26fc879",
            "width": 300
          },
          {
            "height": 64,
            "url": "https://i.scdn.co/image/c9014b2e71fce21e3e7f3de2049d4242b8474415",
            "width": 64
          }
        ],
        "name": "Fear Of The Dark (2015 Remaster)",
        "release_date": "1992",
        "release_date_precision": "year",
        "total_tracks": 12,
        "type": "album",
        "uri": "spotify:album:16Su3EUFLPqWVyrwN1q5wO"
      },
      {
        "album_type": "album",
        "artists": [
          {
            "external_urls": {
              "spotify": "https://open.spotify.com/artist/6mdiAmATAx73kdxrNrnlao"
            },
            "href": "https://api.spotify.com/v1/artists/6mdiAmATAx73kdxrNrnlao",
            "id": "6mdiAmATAx73kdxrNrnlao",
            "name": "Iron Maiden",
            "type": "artist",
            "uri": "spotify:artist:6mdiAmATAx73kdxrNrnlao"
          }
        ],
        "available_markets": [
          "AD",
          "AE",
          "AR",
          "AT",
          "AU",
          "BE",
          "BG",
          "BH",
          "BO",
          "BR",
          "CA",
          "CH",
          "CL",
          "CO",
          "CR",
          "CY",
          "CZ",
          "DE",
          "DK",
          "DO",
          "DZ",
          "EC",
          "EE",
          "EG",
          "ES",
          "FI",
          "FR",
          "GB",
          "GR",
          "GT",
          "HK",
          "HN",
          "HU",
          "ID",
          "IE",
          "IL",
          "IS",
          "IT",
          "JO",
          "JP",
          "KW",
          "LB",
          "LI",
          "LT",
          "LU",
          "LV",
          "MA",
          "MC",
          "MT",
          "MX",
          "MY",
          "NI",
          "NL",
          "NO",
          "NZ",
          "OM",
          "PA",
          "PE",
          "PH",
          "PL",
          "PS",
          "PT",
          "PY",
          "QA",
          "RO",
          "SA",
          "SE",
          "SG",
          "SK",
          "SV",
          "TH",
          "TN",
          "TR",
          "TW",
          "UY",
          "VN",
          "ZA"
        ],
        "external_urls": {
          "spotify": "https://open.spotify.com/album/7I9Wh2IgvI3Nnr8Z1ZSWby"
        },
        "href": "https://api.spotify.com/v1/albums/7I9Wh2IgvI3Nnr8Z1ZSWby",
        "id": "7I9Wh2IgvI3Nnr8Z1ZSWby",
        "images": [
          {
            "height": 640,
            "url": "https://i.scdn.co/image/434fd2739e1d9f4cbacb9600d9d6f6ce62cee1c7",
            "width": 640
          },
          {
            "height": 300,
            "url": "https://i.scdn.co/image/3c1364860ad5e2945055cc81c824ee5c1ee467a8",
            "width": 300
          },
          {
            "height": 64,
            "url": "https://i.scdn.co/image/af5728b5607083715a780bba695bff6c7fc56553",
            "width": 64
          }
        ],
        "name": "Piece Of Mind (2015 Remaster)",
        "release_date": "1983",
        "release_date_precision": "year",
        "total_tracks": 9,
        "type": "album",
        "uri": "spotify:album:7I9Wh2IgvI3Nnr8Z1ZSWby"
      },
      {
        "album_type": "album",
        "artists": [
          {
            "external_urls": {
              "spotify": "https://open.spotify.com/artist/6mdiAmATAx73kdxrNrnlao"
            },
            "href": "https://api.spotify.com/v1/artists/6mdiAmATAx73kdxrNrnlao",
            "id": "6mdiAmATAx73kdxrNrnlao",
            "name": "Iron Maiden",
            "type": "artist",
            "uri": "spotify:artist:6mdiAmATAx73kdxrNrnlao"
          }
        ],
        "available_markets": [
          "AD",
          "AE",
          "AR",
          "AT",
          "AU",
          "BE",
          "BG",
          "BH",
          "BO",
          "BR",
          "CA",
          "CH",
          "CL",
          "CO",
          "CR",
          "CY",
          "CZ",
          "DE",
          "DK",
          "DO",
          "DZ",
          "EC",
          "EE",
          "EG",
          "ES",
          "FI",
          "FR",
          "GB",
          "GR",
          "GT",
          "HK",
          "HN",
          "HU",
          "ID",
          "IE",
          "IL",
          "IS",
          "IT",
          "JO",
          "JP",
          "KW",
          "LB",
          "LI",
          "LT",
          "LU",
          "LV",
          "MA",
          "MC",
          "MT",
          "MX",
          "MY",
          "NI",
          "NL",
          "NO",
          "NZ",
          "OM",
          "PA",
          "PE",
          "PH",
          "PL",
          "PS",
          "PT",
          "PY",
          "QA",
          "RO",
          "SA",
          "SE",
          "SG",
          "SK",
          "SV",
          "TH",
          "TN",
          "TR",
          "TW",
          "UY",
          "VN",
          "ZA"
        ],
        "external_urls": {
          "spotify": "https://open.spotify.com/album/309KOMEivisMmBuzk09635"
        },
        "href": "https://api.spotify.com/v1/albums/309KOMEivisMmBuzk09635",
        "id": "309KOMEivisMmBuzk09635",
        "images": [
          {
            "height": 640,
            "url": "https://i.scdn.co/image/34b344192b17676775033ca7dae61ff9798e4118",
            "width": 640
          },
          {
            "height": 300,
            "url": "https://i.scdn.co/image/ba60c2de30b047361d8d0cd437ea87df6945213a",
            "width": 300
          },
          {
            "height": 64,
            "url": "https://i.scdn.co/image/5c3c0934694c8701b9de19fe7cbfd0fb0175ba30",
            "width": 64
          }
        ],
        "name": "Powerslave (2015 Remaster)",
        "release_date": "1984",
        "release_date_precision": "year",
        "total_tracks": 8,
        "type": "album",
        "uri": "spotify:album:309KOMEivisMmBuzk09635"
      },
      {
        "album_type": "album",
        "artists": [
          {
            "external_urls": {
              "spotify": "https://open.spotify.com/artist/6mdiAmATAx73kdxrNrnlao"
            },
            "href": "https://api.spotify.com/v1/artists/6mdiAmATAx73kdxrNrnlao",
            "id": "6mdiAmATAx73kdxrNrnlao",
            "name": "Iron Maiden",
            "type": "artist",
            "uri": "spotify:artist:6mdiAmATAx73kdxrNrnlao"
          }
        ],
        "available_markets": [
          "AD",
          "AE",
          "AR",
          "AT",
          "AU",
          "BE",
          "BG",
          "BH",
          "BO",
          "BR",
          "CA",
          "CH",
          "CL",
          "CO",
          "CR",
          "CY",
          "CZ",
          "DE",
          "DK",
          "DO",
          "DZ",
          "EC",
          "EE",
          "EG",
          "ES",
          "FI",
          "FR",
          "GB",
          "GR",
          "GT",
          "HK",
          "HN",
          "HU",
          "ID",
          "IE",
          "IL",
          "IS",
          "IT",
          "JO",
          "JP",
          "KW",
          "LB",
          "LI",
          "LT",
          "LU",
          "LV",
          "MA",
          "MC",
          "MT",
          "MX",
          "MY",
          "NI",
          "NL",
          "NO",
          "NZ",
          "OM",
          "PA",
          "PE",
          "PH",
          "PL",
          "PS",
          "PT",
          "PY",
          "QA",
          "RO",
          "SA",
          "SE",
          "SG",
          "SK",
          "SV",
          "TH",
          "TN",
          "TR",
          "TW",
          "UY",
          "VN",
          "ZA"
        ],
        "external_urls": {
          "spotify": "https://open.spotify.com/album/3DNeMApEMCo4IDXNMYnlFi"
        },
        "href": "https://api.spotify.com/v1/albums/3DNeMApEMCo4IDXNMYnlFi",
        "id": "3DNeMApEMCo4IDXNMYnlFi",
        "images": [
          {
            "height": 640,
            "url": "https://i.scdn.co/image/f6c6e74df1575b5a4b3b6813370d18b0206946de",
            "width": 640
          },
          {
            "height": 300,
            "url": "https://i.scdn.co/image/5a0fd3fc6246c06deffe14eca8c3ad1e03061603",
            "width": 300
          },
          {
            "height": 64,
            "url": "https://i.scdn.co/image/e958ee4b6bb6846adbc575492ff5b07205a15721",
            "width": 64
          }
        ],
        "name": "Iron Maiden (2015 Remaster)",
        "release_date": "1980",
        "release_date_precision": "year",
        "total_tracks": 8,
        "type": "album",
        "uri": "spotify:album:3DNeMApEMCo4IDXNMYnlFi"
      },
      {
        "album_type": "album",
        "artists": [
          {
            "external_urls": {
              "spotify": "https://open.spotify.com/artist/6mdiAmATAx73kdxrNrnlao"
            },
            "href": "https://api.spotify.com/v1/artists/6mdiAmATAx73kdxrNrnlao",
            "id": "6mdiAmATAx73kdxrNrnlao",
            "name": "Iron Maiden",
            "type": "artist",
            "uri": "spotify:artist:6mdiAmATAx73kdxrNrnlao"
          }
        ],
        "available_markets": [
          "AD",
          "AE",
          "AR",
          "AT",
          "AU",
          "BE",
          "BG",
          "BH",
          "BO",
          "BR",
          "CA",
          "CH",
          "CL",
          "CO",
          "CR",
          "CY",
          "CZ",
          "DE",
          "DK",
          "DO",
          "DZ",
          "EC",
          "EE",
          "EG",
          "ES",
          "FI",
          "FR",
          "GB",
          "GR",
          "GT",
          "HK",
          "HN",
          "HU",
          "ID",
          "IE",
          "IL",
          "IS",
          "IT",
          "JO",
          "JP",
          "KW",
          "LB",
          "LI",
          "LT",
          "LU",
          "LV",
          "MA",
          "MC",
          "MT",
          "MX",
          "MY",
          "NI",
          "NL",
          "NO",
          "NZ",
          "OM",
          "PA",
          "PE",
          "PH",
          "PL",
          "PS",
          "PT",
          "PY",
          "QA",
          "RO",
          "SA",
          "SE",
          "SG",
          "SK",
          "SV",
          "TH",
          "TN",
          "TR",
          "TW",
          "UY",
          "VN",
          "ZA"
        ],
        "external_urls": {
          "spotify": "https://open.spotify.com/album/1hDF0QPIHVTnSJtxyQVguB"
        },
        "href": "https://api.spotify.com/v1/albums/1hDF0QPIHVTnSJtxyQVguB",
        "id": "1hDF0QPIHVTnSJtxyQVguB",
        "images": [
          {
            "height": 640,
            "url": "https://i.scdn.co/image/a50e563f1921efb16cea9aa64efb88684f55b10e",
            "width": 640
          },
          {
            "height": 300,
            "url": "https://i.scdn.co/image/db96dc5df633c55948cefe5c523db5908ea38ac4",
            "width": 300
          },
          {
            "height": 64,
            "url": "https://i.scdn.co/image/6ac0a0346ceb7f7096b8215ff0bfdd4f57408410",
            "width": 64
          }
        ],
        "name": "Brave New World (2015 Remaster)",
        "release_date": "2000",
        "release_date_precision": "year",
        "total_tracks": 10,
        "type": "album",
        "uri": "spotify:album:1hDF0QPIHVTnSJtxyQVguB"
      },
      {
        "album_type": "album",
        "artists": [
          {
            "external_urls": {
              "spotify": "https://open.spotify.com/artist/6mdiAmATAx73kdxrNrnlao"
            },
            "href": "https://api.spotify.com/v1/artists/6mdiAmATAx73kdxrNrnlao",
            "id": "6mdiAmATAx73kdxrNrnlao",
            "name": "Iron Maiden",
            "type": "artist",
            "uri": "spotify:artist:6mdiAmATAx73kdxrNrnlao"
          }
        ],
        "available_markets": [
          "AD",
          "AE",
          "AR",
          "AT",
          "AU",
          "BE",
          "BG",
          "BH",
          "BO",
          "BR",
          "CA",
          "CH",
          "CL",
          "CO",
          "CR",
          "CY",
          "CZ",
          "DE",
          "DK",
          "DO",
          "DZ",
          "EC",
          "EE",
          "EG",
          "ES",
          "FI",
          "FR",
          "GB",
          "GR",
          "GT",
          "HK",
          "HN",
          "HU",
          "ID",
          "IE",
          "IL",
          "IS",
          "IT",
          "JO",
          "JP",
          "KW",
          "LB",
          "LI",
          "LT",
          "LU",
          "LV",
          "MA",
          "MC",
          "MT",
          "MX",
          "MY",
          "NI",
          "NL",
          "NO",
          "NZ",
          "OM",
          "PA",
          "PE",
          "PH",
          "PL",
          "PS",
          "PT",
          "PY",
          "QA",
          "RO",
          "SA",
          "SE",
          "SG",
          "SK",
          "SV",
          "TH",
          "TN",
          "TR",
          "TW",
          "UY",
          "VN",
          "ZA"
        ],
        "external_urls": {
          "spotify": "https://open.spotify.com/album/0OEg65hPhgP7B0Dy9TqP2L"
        },
        "href": "https://api.spotify.com/v1/albums/0OEg65hPhgP7B0Dy9TqP2L",
        "id": "0OEg65hPhgP7B0Dy9TqP2L",
        "images": [
          {
            "height": 640,
            "url": "https://i.scdn.co/image/4030fa12837a60c8dc06d5be18847120f4c92828",
            "width": 640
          },
          {
            "height": 300,
            "url": "https://i.scdn.co/image/e09a2dc47e03d42994d24ccf121fa16773f27f9e",
            "width": 300
          },
          {
            "height": 64,
            "url": "https://i.scdn.co/image/3287bafe51bff33b606116b2a5f9b165a4daf07e",
            "width": 64
          }
        ],
        "name": "Somewhere In Time (2015 Remaster)",
        "release_date": "1986",
        "release_date_precision": "year",
        "total_tracks": 8,
        "type": "album",
        "uri": "spotify:album:0OEg65hPhgP7B0Dy9TqP2L"
      },
      {
        "album_type": "album",
        "artists": [
          {
            "external_urls": {
              "spotify": "https://open.spotify.com/artist/6mdiAmATAx73kdxrNrnlao"
            },
            "href": "https://api.spotify.com/v1/artists/6mdiAmATAx73kdxrNrnlao",
            "id": "6mdiAmATAx73kdxrNrnlao",
            "name": "Iron Maiden",
            "type": "artist",
            "uri": "spotify:artist:6mdiAmATAx73kdxrNrnlao"
          }
        ],
        "available_markets": [
          "AD",
          "AE",
          "AR",
          "AT",
          "AU",
          "BE",
          "BG",
          "BH",
          "BO",
          "BR",
          "CA",
          "CH",
          "CL",
          "CO",
          "CR",
          "CY",
          "CZ",
          "DE",
          "DK",
          "DO",
          "DZ",
          "EC",
          "EE",
          "EG",
          "ES",
          "FI",
          "FR",
          "GB",
          "GR",
          "GT",
          "HK",
          "HN",
          "HU",
          "ID",
          "IE",
          "IL",
          "IS",
          "IT",
          "JO",
          "JP",
          "KW",
          "LB",
          "LI",
          "LT",
          "LU",
          "LV",
          "MA",
          "MC",
          "MT",
          "MX",
          "MY",
          "NI",
          "NL",
          "NO",
          "NZ",
          "OM",
          "PA",
          "PE",
          "PH",
          "PL",
          "PS",
          "PT",
          "PY",
          "QA",
          "RO",
          "SA",
          "SE",
          "SG",
          "SK",
          "SV",
          "TH",
          "TN",
          "TR",
          "TW",
          "UY",
          "VN",
          "ZA"
        ],
        "external_urls": {
          "spotify": "https://open.spotify.com/album/1rG6IgNdwE1IGFuIKuYosz"
        },
        "href": "https://api.spotify.com/v1/albums/1rG6IgNdwE1IGFuIKuYosz",
        "id": "1rG6IgNdwE1IGFuIKuYosz",
        "images": [
          {
            "height": 640,
            "url": "https://i.scdn.co/image/e4d53ed944dae4558089ae81fb3da2dd020e0ebf",
            "width": 640
          },
          {
            "height": 300,
            "url": "https://i.scdn.co/image/5563f2432d858ad92bcd2f561555e437d7763bd2",
            "width": 300
          },
          {
            "height": 64,
            "url": "https://i.scdn.co/image/c4635d0e4247cb5b7ac11a04b4ed612cc722ca63",
            "width": 64
          }
        ],
        "name": "Seventh Son Of A Seventh Son (2015 Remaster)",
        "release_date": "1988",
        "release_date_precision": "year",
        "total_tracks": 8,
        "type": "album",
        "uri": "spotify:album:1rG6IgNdwE1IGFuIKuYosz"
      },
      {
        "album_type": "album",
        "artists": [
          {
            "external_urls": {
              "spotify": "https://open.spotify.com/artist/6mdiAmATAx73kdxrNrnlao"
            },
            "href": "https://api.spotify.com/v1/artists/6mdiAmATAx73kdxrNrnlao",
            "id": "6mdiAmATAx73kdxrNrnlao",
            "name": "Iron Maiden",
            "type": "artist",
            "uri": "spotify:artist:6mdiAmATAx73kdxrNrnlao"
          }
        ],
        "available_markets": [
          "AD",
          "AE",
          "AR",
          "AT",
          "AU",
          "BE",
          "BG",
          "BH",
          "BO",
          "BR",
          "CA",
          "CH",
          "CL",
          "CO",
          "CR",
          "CY",
          "CZ",
          "DE",
          "DK",
          "DO",
          "DZ",
          "EC",
          "EE",
          "EG",
          "ES",
          "FI",
          "FR",
          "GB",
          "GR",
          "GT",
          "HK",
          "HN",
          "HU",
          "ID",
          "IE",
          "IL",
          "IS",
          "IT",
          "JO",
          "JP",
          "KW",
          "LB",
          "LI",
          "LT",
          "LU",
          "LV",
          "MA",
          "MC",
          "MT",
          "MX",
          "MY",
          "NI",
          "NL",
          "NO",
          "NZ",
          "OM",
          "PA",
          "PE",
          "PH",
          "PL",
          "PS",
          "PT",
          "PY",
          "QA",
          "RO",
          "SA",
          "SE",
          "SG",
          "SK",
          "SV",
          "TH",
          "TN",
          "TR",
          "TW",
          "UY",
          "VN",
          "ZA"
        ],
        "external_urls": {
          "spotify": "https://open.spotify.com/album/4vSfHrq6XxVyMcJ6PguFR2"
        },
        "href": "https://api.spotify.com/v1/albums/4vSfHrq6XxVyMcJ6PguFR2",
        "id": "4vSfHrq6XxVyMcJ6PguFR2",
        "images": [
          {
            "height": 640,
            "url": "https://i.scdn.co/image/60905c7dc80eca3c82b23cb2344d5d889ccb4cf8",
            "width": 640
          },
          {
            "height": 300,
            "url": "https://i.scdn.co/image/d7cf46d2524a40433ee940be2b74d93449db1b07",
            "width": 300
          },
          {
            "height": 64,
            "url": "https://i.scdn.co/image/8af94cafefd062b293ac7ff6dc95491812c4be3c",
            "width": 64
          }
        ],
        "name": "The Book Of Souls",
        "release_date": "2015-09-04",
        "release_date_precision": "day",
        "total_tracks": 11,
        "type": "album",
        "uri": "spotify:album:4vSfHrq6XxVyMcJ6PguFR2"
      },
      {
        "album_type": "album",
        "artists": [
          {
            "external_urls": {
              "spotify": "https://open.spotify.com/artist/6mdiAmATAx73kdxrNrnlao"
            },
            "href": "https://api.spotify.com/v1/artists/6mdiAmATAx73kdxrNrnlao",
            "id": "6mdiAmATAx73kdxrNrnlao",
            "name": "Iron Maiden",
            "type": "artist",
            "uri": "spotify:artist:6mdiAmATAx73kdxrNrnlao"
          }
        ],
        "available_markets": [
          "AD",
          "AE",
          "AR",
          "AT",
          "AU",
          "BE",
          "BG",
          "BH",
          "BO",
          "BR",
          "CA",
          "CH",
          "CL",
          "CO",
          "CR",
          "CY",
          "CZ",
          "DE",
          "DK",
          "DO",
          "DZ",
          "EC",
          "EE",
          "EG",
          "ES",
          "FI",
          "FR",
          "GB",
          "GR",
          "GT",
          "HK",
          "HN",
          "HU",
          "ID",
          "IE",
          "IL",
          "IS",
          "IT",
          "JO",
          "JP",
          "KW",
          "LB",
          "LI",
          "LT",
          "LU",
          "LV",
          "MA",
          "MC",
          "MT",
          "MX",
          "MY",
          "NI",
          "NL",
          "NO",
          "NZ",
          "OM",
          "PA",
          "PE",
          "PH",
          "PL",
          "PS",
          "PT",
          "PY",
          "QA",
          "RO",
          "SA",
          "SE",
          "SG",
          "SK",
          "SV",
          "TH",
          "TN",
          "TR",
          "TW",
          "UY",
          "VN",
          "ZA"
        ],
        "external_urls": {
          "spotify": "https://open.spotify.com/album/4SiZSq9igWhpJoMzjxE1xE"
        },
        "href": "https://api.spotify.com/v1/albums/4SiZSq9igWhpJoMzjxE1xE",
        "id": "4SiZSq9igWhpJoMzjxE1xE",
        "images": [
          {
            "height": 640,
            "url": "https://i.scdn.co/image/362027a205b427345cfb44fa845b7020f608154d",
            "width": 640
          },
          {
            "height": 300,
            "url": "https://i.scdn.co/image/2dab59ea48920d7fa44097f3851795393943b0c6",
            "width": 300
          },
          {
            "height": 64,
            "url": "https://i.scdn.co/image/f747256208db7548605ea9d8aeb6ab76cb002e17",
            "width": 64
          }
        ],
        "name": "Rock In Rio [Live]",
        "release_date": "2002-03-20",
        "release_date_precision": "day",
        "total_tracks": 19,
        "type": "album",
        "uri": "spotify:album:4SiZSq9igWhpJoMzjxE1xE"
      }
    ],
    "limit": 10,
    "next": "https://api.spotify.com/v1/search?query=iron+maiden&type=album&market=BR&offset=10&limit=10",
    "offset": 0,
    "previous": null,
    "total": 130
  }
}